state={
	id=735
	name="STATE_735"

	state_category = town

	history={
		owner = FRA
		add_core_of = OCC
		add_core_of = FRA
		victory_points = {
			778 1 
		}
		victory_points = {
			9909 5 
		}
		victory_points = {
			6780 5 
		}
		buildings = {
			infrastructure = 4
			9909 = {
				naval_base = 2
			}		
		}
	}

	provinces={
		611 6780 9738 11721 770 11891 764 778 3764 3959 3961 6609 6975 9603 9736 9745 9909 11573 
	}
	manpower=907500
	buildings_max_level_factor=1.000
}
